[
{
    "model": "location.province",
    "pk": 1,
    "fields": {
        "name": "Barcelona"
    }
},
{
    "model": "location.municipality",
    "pk": 1,
    "fields": {
        "province": 1,
        "name": "Barcelona"
    }
},
{
    "model": "subscription.service",
    "pk": 1,
    "fields": {
        "name": "Afiliaci\u00f3",
        "cost": 10,
        "description": "10\u20ac al mes. Soci de la eXO"
    }
},
{
    "model": "subscription.service",
    "pk": 2,
    "fields": {
        "name": "Afiliaci\u00f3 amb acc\u00e9s a Internet",
        "cost": 12,
        "description": "12 \u20ac al mes. Soci de la eXO amb acc\u00e9s a Internet"
    }
},
{
    "model": "netinterface.network_interface_protocol",
    "pk": 1,
    "fields": {
        "name": "IPIP",
        "description": ""
    }
},
{
    "model": "netinterface.network_interface_protocol",
    "pk": 2,
    "fields": {
        "name": "GRE",
        "description": ""
    }
},
{
    "model": "netinterface.network_interface_protocol",
    "pk": 3,
    "fields": {
        "name": "EoIP",
        "description": "Ethernet over IP (Mikrotik)"
    }
},
{
    "model": "organization.responsability_type",
    "pk": 1,
    "fields": {
        "name": "President",
        "description": "C\u00e0rrec essencial per l'associaci\u00f3"
    }
},
{
    "model": "organization.responsability_type",
    "pk": 2,
    "fields": {
        "name": "Vicepresident",
        "description": ""
    }
},
{
    "model": "organization.responsability_type",
    "pk": 3,
    "fields": {
        "name": "Tresorer",
        "description": "C\u00e0rrec essencial per l'associaci\u00f3"
    }
},
{
    "model": "organization.responsability_type",
    "pk": 5,
    "fields": {
        "name": "Secretari",
        "description": "C\u00e0rrec essencial per l'associaci\u00f3"
    }
},
{
    "model": "organization.responsability_type",
    "pk": 6,
    "fields": {
        "name": "Vocalia",
        "description": ""
    }
},
{
    "model": "organization.responsability_type",
    "pk": 9,
    "fields": {
        "name": "Equip de treball",
        "description": ""
    }
},
{
    "model": "activity.type",
    "pk": 1,
    "fields": {
        "name": "Altres",
        "description": ""
    }
},
{
    "model": "activity.type",
    "pk": 2,
    "fields": {
        "name": "Taller",
        "description": ""
    }
},
{
    "model": "activity.type",
    "pk": 3,
    "fields": {
        "name": "Curs",
        "description": ""
    }
},
{
    "model": "activity.type",
    "pk": 4,
    "fields": {
        "name": "Instal\u00b7laci\u00f3",
        "description": ""
    }
},
{
    "model": "activity.type",
    "pk": 6,
    "fields": {
        "name": "Manteniment",
        "description": ""
    }
},
{
    "model": "activity.type",
    "pk": 7,
    "fields": {
        "name": "Prova de cobertura",
        "description": "Visita de prova de cobertura"
    }
},
{
    "model": "activity.type",
    "pk": 8,
    "fields": {
        "name": "Xerrada",
        "description": ""
    }
},
{
    "model": "activity.expense_type",
    "pk": 1,
    "fields": {
        "name": "Altres",
        "description": ""
    }
},
{
    "model": "inventory.item_type",
    "pk": 1,
    "fields": {
        "name": "Server",
        "description": ""
    }
},
{
    "model": "inventory.item_type",
    "pk": 2,
    "fields": {
        "name": "Router",
        "description": ""
    }
},
{
    "model": "inventory.item_type",
    "pk": 3,
    "fields": {
        "name": "Switch",
        "description": ""
    }
},
{
    "model": "inventory.item_type",
    "pk": 4,
    "fields": {
        "name": "Wifi",
        "description": ""
    }
},
{
    "model": "inventory.item_status",
    "pk": 1,
    "fields": {
        "name": "Idle",
        "description": "Waiting to be used"
    }
},
{
    "model": "inventory.item_status",
    "pk": 2,
    "fields": {
        "name": "Reserved",
        "description": "Backup purposes"
    }
},
{
    "model": "inventory.item_status",
    "pk": 3,
    "fields": {
        "name": "Testing",
        "description": "Used in development"
    }
},
{
    "model": "inventory.item_status",
    "pk": 4,
    "fields": {
        "name": "Working",
        "description": "Used in production"
    }
},
{
    "model": "identity.payment_method",
    "pk": 1,
    "fields": {
        "payment_method": "Direct debit"
    }
},
{
    "model": "identity.payment_method",
    "pk": 2,
    "fields": {
        "payment_method": "Periodic transfer"
    }
},
{
    "model": "identity.payment_method",
    "pk": 3,
    "fields": {
        "payment_method": "Cash"
    }
},
{
    "model": "identity.payment_method",
    "pk": 4,
    "fields": {
        "payment_method": "Paypal"
    }
}
]
